Neuroanalysis
…
length(unique(readmissions$patient_num))

## [1] 1315

re_admin_stats <- readmissions %>% 
  select(patient_num, n_readmissions) %>% 
  distinct() %>% 
  count(n_readmissions)

re_admin_stats

## # A tibble: 28 x 2
##    n_readmissions     n
##             <int> <int>
##  1              1   532
##  2              2   240
##  3              3   161
##  4              4    98
##  5              5    75
##  6              6    57
##  7              7    33
##  8              8    18
##  9              9    18
## 10             10    17
## #  with 18 more rows
…
