Neurological condition analysis
…
length(unique(readmissions$patient_num))

## [1] 1384

re_admin_stats <- readmissions %>% 
  select(patient_num, n_readmissions) %>% 
  distinct() %>% 
  count(n_readmissions)

re_admin_stats

## # A tibble: 30 x 2
##    n_readmissions     n
##             <int> <int>
##  1              1   582
##  2              2   235
##  3              3   170
##  4              4   103
##  5              5    83
##  6              6    55
##  7              7    33
##  8              8    21
##  9              9    21
## 10             10    14
## #  with 20 more rows
…
